|N/A|0|0
LCM Provided w/ 7ft harness and 2 ft of seal tight conduit|GM77177-KP1-QS|637.6|669
LCM Provided w/ terminal blocks |GM77177-KP2-QS|450.4|473
Carb heater - 12RES|GM19462-KP1|75.95|90
Carb heater - 17RES|GM57969-KP1|83.63|100
RDT External Alarm Module |GM38795-KP1|132|160
RDT Accessory Board|GM49179-KA1|100|125
Programmable interface module|GM81529-KP1-QS|125|150
On Cue|GM81385-KP1|200|250
On Cue|GM62630-KP2-QS|300|356
On Cue Plus|GM81385-KP2-QS|200|250
On Cue Plus Wireless for RDC2/DC2/VSC|GM81385-KP3-QS|250|299.96
On Cue Plus Wireless for RDC/DC|GM62465-KP3-QS|325|374.96
RXT Status Indicator|GM84662-KP1-QS|15|30
Concrete Mounting Pad|GM90969-KP1-QS|100|175
Block Heater - 38RCL|GM84997-KP1-QS|100|190
Block Heater - 48RCL|GM78529-KP1-QS|100|190
PowerSync Automatic Paralleling Module (APM)| 200A|GM85144-KP1-QS|1200|1400
Breaker| Kit APM-14RESA (OPTIONAL)|GM86368-KP1-QS|75|95
Breaker| Kit APM-20RESA (OPTIONAL)|GM86369-KP1-QS|100|130
RDT and RXT Load shed Kit|GM88281-KP1-QS |80|119
240 v Fuel Regulator Heater - 20RESA|GM79141-KP2-QS|0|0
240v Carb Heater - 20RESA|GM57969-KP3-QS|0|0
240v Carb Heater - 14RESA|GM19462-KP3-QS|0|0
E-stop switch - 14/20RESA|GM90095-KP1-QS|0|0
