﻿Rebecca|Dunn|3 Daystar Trail||Barrancas|41|16511|08755435547|09171598491|rdunn0@studiopress.com
Kenneth|Chapman|38273 Roth Park|Suite 2021|Yylanly|2|84461|1474572514|5531768226|kchapman1@geocities.jp
Amanda|Phillips|7 Warrior Pass||Sumpur Kudus|10|67921|9860664384|1535541838|aphillips2@is.gd
Louis|Sanders|96 Caliangt Way||Lago da Pedra|51|44009|9599669765|6892390867|lsanders3@163.com
Irene|Hudson|16571 Del Sol Way||Janowiec|10|48120|3744950328|4378758476|ihudson4@wired.com
Aaron|Davis|37615 Hazelcrest Street||Punaauia|2|44525|5894891643||adavis5@creativecommons.org
Jacqueline|Payne|742 West Circle||Guayabo Dulce|24|81068|3527316567||jpayne6@sun.com
Shirley|Garrett|77114 Sullivan Junction||Kertayuga|44|84651|7966425586||sgarrett7@bigcartel.com
Philip|Stewart|35020 Rigney Avenue|Room 131D|Espana|41|13610|6020533472||pstewart8@plala.or.jp
Peter|Vasquez|5129 Daystar Way||Carot|21|67985|9058197788||pvasquez9@buzzfeed.com
Brian|Hansen|7 Clarendon Center||Nuevo Berlin|16|56711|7080739842|5341694130|bhansena@over-blog.com
Karen|Jenkins|94 Boyd Pass||Pancas|30|53840|1426563353|6526623399|kjenkinsb@delicious.com
Fred|Gomez|8 Hagan Way||Ban Na|22|61711|7474631158|2307637778|fgomezc@twitpic.com
Phillip|Jacobs|1 Bay Junction|Apt 16|Auto Orizare|40|64974|8109534310||pjacobsd@oracle.com
Angela|Greene|5722 Anhalt Way||Dianfang|46|95260|5182053051||agreenee@bigcartel.com
Kathy|Wright|259 Armistice Road||Yangjian|36|71760|4964770592||kwrightf@microsoft.com
Martha|Sanders|9441 Division Park||Sult|34|43003|9844752243||msandersg@reverbnation.com
Shirley|Bryant|3 Cardinal Street|Suite 76L|Klimavichy|18|95249|8013545906||sbryanth@nationalgeographic.com
Martha|Stephens|692 Transport Terrace||Wenchun|26|73748|3561835351|4190150744|mstephensi@nationalgeographic.com
Irene|Cooper|75294 Rigney Court||Verbilki|14|86189|5913642684|3642302442|icooperj@goodreads.com
